[{"line":1,"elements":[{"line":3,"name":"","description":"","type":"background","keyword":"Background","steps":[{"name":"url baseURL","result":{"duration":47800,"status":"passed"},"match":{"location":"karate","arguments":[]},"keyword":"*","line":4,"doc_string":{"content_type":"","value":"08:50:02.159 karate.env system property was: dev","line":4}}]},{"line":7,"name":"teste 001","description":"","id":"teste-001","type":"scenario","keyword":"Scenario","steps":[{"name":"karate.callSingle('get.feature@teste001')","result":{"duration":1003144100,"status":"passed"},"match":{"location":"karate","arguments":[]},"keyword":"*","line":8,"doc_string":{"content_type":"","value":"08:50:02.229 >> lock acquired, begin callSingle: get.feature@teste001\n08:50:03.227 << lock released, cached callSingle: get.feature@teste001","line":8}},{"name":"get.feature","result":{"duration":0,"status":"passed"},"match":{"location":"karate","arguments":[]},"keyword":"","line":8},{"name":"url baseURL","result":{"duration":30500,"status":"passed"},"match":{"location":"karate","arguments":[]},"keyword":"> *","line":4,"doc_string":{"content_type":"","value":"08:50:02.247 scenario called at line: 7 by tag: @teste001","line":4}},{"name":"path '\/api\/users?page=2'","result":{"duration":6085200,"status":"passed"},"match":{"location":"karate","arguments":[]},"keyword":"> Given","line":8},{"name":"method get","result":{"duration":934553200,"status":"passed"},"match":{"location":"karate","arguments":[]},"keyword":"> When","line":9,"doc_string":{"content_type":"","value":"08:50:02.492 request:\n1 > GET https:\/\/reqres.in\/api\/users%3Fpage=2\n1 > Accept-Encoding: gzip,deflate\n1 > Connection: Keep-Alive\n1 > Host: reqres.in\n1 > User-Agent: Apache-HttpClient\/4.5.5 (Java\/11.0.22)\n\n08:50:03.187 response time in milliseconds: 672,39\n1 < 200\n1 < Access-Control-Allow-Origin: *\n1 < CF-Cache-Status: REVALIDATED\n1 < CF-RAY: 876477397c6f1b26-GRU\n1 < Cache-Control: max-age=14400\n1 < Connection: keep-alive\n1 < Content-Type: application\/json; charset=utf-8\n1 < Date: Thu, 18 Apr 2024 11:55:25 GMT\n1 < Etag: W\/\"2c1-N6Rqerxquq2kgQhL51EiSg4x0R8\"\n1 < Nel: {\"report_to\":\"heroku-nel\",\"max_age\":3600,\"success_fraction\":0.005,\"failure_fraction\":0.05,\"response_headers\":[\"Via\"]}\n1 < Report-To: {\"group\":\"heroku-nel\",\"max_age\":3600,\"endpoints\":[{\"url\":\"https:\/\/nel.heroku.com\/reports?ts=1713385136&sid=c4c9725f-1ab0-44d8-820f-430df2718e11&s=TrreJUHbGJT%2BQ7deC%2FdTc7e7ceBMW%2Fl%2FQOwUBxgrVl8%3D\"}]}\n1 < Reporting-Endpoints: heroku-nel=https:\/\/nel.heroku.com\/reports?ts=1713385136&sid=c4c9725f-1ab0-44d8-820f-430df2718e11&s=TrreJUHbGJT%2BQ7deC%2FdTc7e7ceBMW%2Fl%2FQOwUBxgrVl8%3D\n1 < Server: cloudflare\n1 < Transfer-Encoding: chunked\n1 < Vary: Accept-Encoding\n1 < Via: 1.1 vegur\n1 < X-Powered-By: Express\n{\"page\":1,\"per_page\":6,\"total\":12,\"total_pages\":2,\"data\":[{\"id\":1,\"name\":\"cerulean\",\"year\":2000,\"color\":\"#98B2D1\",\"pantone_value\":\"15-4020\"},{\"id\":2,\"name\":\"fuchsia rose\",\"year\":2001,\"color\":\"#C74375\",\"pantone_value\":\"17-2031\"},{\"id\":3,\"name\":\"true red\",\"year\":2002,\"color\":\"#BF1932\",\"pantone_value\":\"19-1664\"},{\"id\":4,\"name\":\"aqua sky\",\"year\":2003,\"color\":\"#7BC4C4\",\"pantone_value\":\"14-4811\"},{\"id\":5,\"name\":\"tigerlily\",\"year\":2004,\"color\":\"#E2583E\",\"pantone_value\":\"17-1456\"},{\"id\":6,\"name\":\"blue turquoise\",\"year\":2005,\"color\":\"#53B0AE\",\"pantone_value\":\"15-5217\"}],\"support\":{\"url\":\"https:\/\/reqres.in\/#support-heading\",\"text\":\"To keep ReqRes free, contributions towards server costs are appreciated!\"}}","line":9}},{"name":"status 200","result":{"duration":59600,"status":"passed"},"match":{"location":"karate","arguments":[]},"keyword":"> Then","line":10},{"name":"path '\/api\/users\/2'","result":{"duration":8088900,"status":"passed"},"match":{"location":"karate","arguments":[]},"keyword":"Given","line":9},{"name":"method delete","result":{"duration":468807700,"status":"passed"},"match":{"location":"karate","arguments":[]},"keyword":"When","line":10,"doc_string":{"content_type":"","value":"08:50:03.238 request:\n1 > DELETE https:\/\/reqres.in\/api\/users\/2\n1 > Accept-Encoding: gzip,deflate\n1 > Connection: Keep-Alive\n1 > Host: reqres.in\n1 > User-Agent: Apache-HttpClient\/4.5.5 (Java\/11.0.22)\n\n08:50:03.703 response time in milliseconds: 455,18\n1 < 204\n1 < Access-Control-Allow-Origin: *\n1 < CF-Cache-Status: DYNAMIC\n1 < CF-RAY: 8764773ce862622d-GRU\n1 < Connection: keep-alive\n1 < Content-Length: 0\n1 < Date: Thu, 18 Apr 2024 11:55:26 GMT\n1 < Etag: W\/\"2-vyGp6PvFo4RvsFtPoIWeCReyIC8\"\n1 < Nel: {\"report_to\":\"heroku-nel\",\"max_age\":3600,\"success_fraction\":0.005,\"failure_fraction\":0.05,\"response_headers\":[\"Via\"]}\n1 < Report-To: {\"group\":\"heroku-nel\",\"max_age\":3600,\"endpoints\":[{\"url\":\"https:\/\/nel.heroku.com\/reports?ts=1713441325&sid=c4c9725f-1ab0-44d8-820f-430df2718e11&s=8i9PORAPP5J3%2BVIFOPnBdL0hi9QGmxwd6TTroPCpfHY%3D\"}]}\n1 < Reporting-Endpoints: heroku-nel=https:\/\/nel.heroku.com\/reports?ts=1713441325&sid=c4c9725f-1ab0-44d8-820f-430df2718e11&s=8i9PORAPP5J3%2BVIFOPnBdL0hi9QGmxwd6TTroPCpfHY%3D\n1 < Server: cloudflare\n1 < Via: 1.1 vegur\n1 < X-Powered-By: Express","line":10}},{"name":"status 204","result":{"duration":28600,"status":"passed"},"match":{"location":"karate","arguments":[]},"keyword":"Then","line":11}],"tags":[{"name":"@teste005","line":6}]}],"name":"features\/demo\/delete.feature","description":"Teste delete","id":"teste-delete","keyword":"Feature","uri":"features\/demo\/delete.feature"}]