[{"line":1,"elements":[{"line":3,"name":"","description":"","type":"background","keyword":"Background","steps":[{"name":"url baseURL","result":{"duration":44400,"status":"passed"},"match":{"location":"karate","arguments":[]},"keyword":"*","line":4,"doc_string":{"content_type":"","value":"18:20:12.805 karate.env system property was: dev","line":4}}]},{"line":7,"name":"teste 001","description":"","id":"teste-001","type":"scenario","keyword":"Scenario","steps":[{"name":"path '\/api\/users?page=2'","result":{"duration":3264900,"status":"passed"},"match":{"location":"karate","arguments":[]},"keyword":"Given","line":8},{"name":"method get","result":{"duration":477899400,"status":"passed"},"match":{"location":"karate","arguments":[]},"keyword":"When","line":9,"doc_string":{"content_type":"","value":"18:20:13.087 request:\n1 > GET https:\/\/reqres.in\/api\/users%3Fpage=2\n1 > Accept-Encoding: gzip,deflate\n1 > Connection: Keep-Alive\n1 > Host: reqres.in\n1 > User-Agent: Apache-HttpClient\/4.5.5 (Java\/11.0.22)\n\n18:20:13.339 response time in milliseconds: 229,15\n1 < 200\n1 < Access-Control-Allow-Origin: *\n1 < Age: 3996\n1 < CF-Cache-Status: HIT\n1 < CF-RAY: 875f7d01896f1a8e-GRU\n1 < Cache-Control: max-age=14400\n1 < Connection: keep-alive\n1 < Content-Type: application\/json; charset=utf-8\n1 < Date: Wed, 17 Apr 2024 21:25:33 GMT\n1 < Etag: W\/\"2c1-N6Rqerxquq2kgQhL51EiSg4x0R8\"\n1 < Nel: {\"report_to\":\"heroku-nel\",\"max_age\":3600,\"success_fraction\":0.005,\"failure_fraction\":0.05,\"response_headers\":[\"Via\"]}\n1 < Report-To: {\"group\":\"heroku-nel\",\"max_age\":3600,\"endpoints\":[{\"url\":\"https:\/\/nel.heroku.com\/reports?ts=1713385136&sid=c4c9725f-1ab0-44d8-820f-430df2718e11&s=TrreJUHbGJT%2BQ7deC%2FdTc7e7ceBMW%2Fl%2FQOwUBxgrVl8%3D\"}]}\n1 < Reporting-Endpoints: heroku-nel=https:\/\/nel.heroku.com\/reports?ts=1713385136&sid=c4c9725f-1ab0-44d8-820f-430df2718e11&s=TrreJUHbGJT%2BQ7deC%2FdTc7e7ceBMW%2Fl%2FQOwUBxgrVl8%3D\n1 < Server: cloudflare\n1 < Transfer-Encoding: chunked\n1 < Vary: Accept-Encoding\n1 < Via: 1.1 vegur\n1 < X-Powered-By: Express\n{\"page\":1,\"per_page\":6,\"total\":12,\"total_pages\":2,\"data\":[{\"id\":1,\"name\":\"cerulean\",\"year\":2000,\"color\":\"#98B2D1\",\"pantone_value\":\"15-4020\"},{\"id\":2,\"name\":\"fuchsia rose\",\"year\":2001,\"color\":\"#C74375\",\"pantone_value\":\"17-2031\"},{\"id\":3,\"name\":\"true red\",\"year\":2002,\"color\":\"#BF1932\",\"pantone_value\":\"19-1664\"},{\"id\":4,\"name\":\"aqua sky\",\"year\":2003,\"color\":\"#7BC4C4\",\"pantone_value\":\"14-4811\"},{\"id\":5,\"name\":\"tigerlily\",\"year\":2004,\"color\":\"#E2583E\",\"pantone_value\":\"17-1456\"},{\"id\":6,\"name\":\"blue turquoise\",\"year\":2005,\"color\":\"#53B0AE\",\"pantone_value\":\"15-5217\"}],\"support\":{\"url\":\"https:\/\/reqres.in\/#support-heading\",\"text\":\"To keep ReqRes free, contributions towards server costs are appreciated!\"}}","line":9}},{"name":"status 200","result":{"duration":45200,"status":"passed"},"match":{"location":"karate","arguments":[]},"keyword":"Then","line":10}],"tags":[{"name":"@teste001","line":6}]},{"line":3,"name":"","description":"","type":"background","keyword":"Background","steps":[{"name":"url baseURL","result":{"duration":67000,"status":"passed"},"match":{"location":"karate","arguments":[]},"keyword":"*","line":4,"doc_string":{"content_type":"","value":"18:20:13.358 karate.env system property was: dev","line":4}}]},{"line":13,"name":"teste 002","description":"","id":"teste-002","type":"scenario","keyword":"Scenario","steps":[{"name":"path '\/api\/users\/2'","result":{"duration":4466900,"status":"passed"},"match":{"location":"karate","arguments":[]},"keyword":"Given","line":14},{"name":"method get","result":{"duration":82414200,"status":"passed"},"match":{"location":"karate","arguments":[]},"keyword":"When","line":15,"doc_string":{"content_type":"","value":"18:20:13.375 request:\n1 > GET https:\/\/reqres.in\/api\/users\/2\n1 > Accept-Encoding: gzip,deflate\n1 > Connection: Keep-Alive\n1 > Host: reqres.in\n1 > User-Agent: Apache-HttpClient\/4.5.5 (Java\/11.0.22)\n\n18:20:13.452 response time in milliseconds: 61,60\n1 < 200\n1 < Access-Control-Allow-Origin: *\n1 < Age: 2796\n1 < CF-Cache-Status: HIT\n1 < CF-RAY: 875f7d027fd25210-GRU\n1 < Cache-Control: max-age=14400\n1 < Connection: keep-alive\n1 < Content-Type: application\/json; charset=utf-8\n1 < Date: Wed, 17 Apr 2024 21:25:33 GMT\n1 < Etag: W\/\"118-pbdwwFo9SKNhD3Lx5iHJyngpq00\"\n1 < Nel: {\"report_to\":\"heroku-nel\",\"max_age\":3600,\"success_fraction\":0.005,\"failure_fraction\":0.05,\"response_headers\":[\"Via\"]}\n1 < Report-To: {\"group\":\"heroku-nel\",\"max_age\":3600,\"endpoints\":[{\"url\":\"https:\/\/nel.heroku.com\/reports?ts=1713353222&sid=c4c9725f-1ab0-44d8-820f-430df2718e11&s=ew2ky4IdeqrpwTsspc0q44DG%2FT7XVXIMRCKqMNJyoQY%3D\"}]}\n1 < Reporting-Endpoints: heroku-nel=https:\/\/nel.heroku.com\/reports?ts=1713353222&sid=c4c9725f-1ab0-44d8-820f-430df2718e11&s=ew2ky4IdeqrpwTsspc0q44DG%2FT7XVXIMRCKqMNJyoQY%3D\n1 < Server: cloudflare\n1 < Transfer-Encoding: chunked\n1 < Vary: Accept-Encoding\n1 < Via: 1.1 vegur\n1 < X-Powered-By: Express\n{\"data\":{\"id\":2,\"email\":\"janet.weaver@reqres.in\",\"first_name\":\"Janet\",\"last_name\":\"Weaver\",\"avatar\":\"https:\/\/reqres.in\/img\/faces\/2-image.jpg\"},\"support\":{\"url\":\"https:\/\/reqres.in\/#support-heading\",\"text\":\"To keep ReqRes free, contributions towards server costs are appreciated!\"}}","line":15}},{"name":"status 200","result":{"duration":19800,"status":"passed"},"match":{"location":"karate","arguments":[]},"keyword":"Then","line":16}],"tags":[{"name":"@teste002","line":12}]}],"name":"features\/demo\/get.feature","description":"","id":"","keyword":"Feature","uri":"features\/demo\/get.feature"}]