{"failedCount":0,"prefixedPath":"features\/demo\/get.feature","packageQualifiedName":"features.demo.get","loopIndex":-1,"relativePath":"features\/demo\/get.feature","scenarioResults":[{"sectionIndex":0,"stepResults":[{"result":{"nanos":1708500,"startTime":1713388390501,"endTime":1713388390503,"millis":1.7085,"status":"passed"},"step":{"background":true,"line":4,"prefix":"*","index":0,"text":"url \"https:\/\/reqres.in\""},"stepLog":"18:13:10.476 karate.env system property was: dev \n"},{"result":{"nanos":382400,"startTime":1713388390506,"endTime":1713388390506,"millis":0.3824,"status":"passed"},"step":{"line":8,"prefix":"Given","index":0,"text":"url \"https:\/\/reqres.in\""}},{"result":{"nanos":346600,"startTime":1713388390506,"endTime":1713388390506,"millis":0.3466,"status":"passed"},"step":{"line":9,"prefix":"Given","index":1,"text":"path '\/api\/users?page=2'"}},{"result":{"nanos":516567600,"startTime":1713388390507,"endTime":1713388391024,"millis":516.5676,"status":"passed"},"step":{"line":10,"prefix":"When","index":2,"text":"method get"},"stepLog":"18:13:10.711 request:\n1 > GET https:\/\/reqres.in\/api\/users%3Fpage=2\n1 > Host: reqres.in\n1 > Connection: Keep-Alive\n1 > User-Agent: Apache-HttpClient\/4.5.14 (Java\/11.0.22)\n1 > Accept-Encoding: gzip,deflate\n\n\n18:13:10.993 response time in milliseconds: 270\n1 < 200\n1 < Date: Wed, 17 Apr 2024 21:18:30 GMT\n1 < Content-Type: application\/json; charset=utf-8\n1 < Transfer-Encoding: chunked\n1 < Connection: keep-alive\n1 < Report-To: {\"group\":\"heroku-nel\",\"max_age\":3600,\"endpoints\":[{\"url\":\"https:\/\/nel.heroku.com\/reports?ts=1713385136&sid=c4c9725f-1ab0-44d8-820f-430df2718e11&s=TrreJUHbGJT%2BQ7deC%2FdTc7e7ceBMW%2Fl%2FQOwUBxgrVl8%3D\"}]}\n1 < Reporting-Endpoints: heroku-nel=https:\/\/nel.heroku.com\/reports?ts=1713385136&sid=c4c9725f-1ab0-44d8-820f-430df2718e11&s=TrreJUHbGJT%2BQ7deC%2FdTc7e7ceBMW%2Fl%2FQOwUBxgrVl8%3D\n1 < Nel: {\"report_to\":\"heroku-nel\",\"max_age\":3600,\"success_fraction\":0.005,\"failure_fraction\":0.05,\"response_headers\":[\"Via\"]}\n1 < X-Powered-By: Express\n1 < Access-Control-Allow-Origin: *\n1 < Etag: W\/\"2c1-N6Rqerxquq2kgQhL51EiSg4x0R8\"\n1 < Via: 1.1 vegur\n1 < Cache-Control: max-age=14400\n1 < CF-Cache-Status: HIT\n1 < Age: 3573\n1 < Vary: Accept-Encoding\n1 < Server: cloudflare\n1 < CF-RAY: 875f72b21a3c013c-GRU\n{\"page\":1,\"per_page\":6,\"total\":12,\"total_pages\":2,\"data\":[{\"id\":1,\"name\":\"cerulean\",\"year\":2000,\"color\":\"#98B2D1\",\"pantone_value\":\"15-4020\"},{\"id\":2,\"name\":\"fuchsia rose\",\"year\":2001,\"color\":\"#C74375\",\"pantone_value\":\"17-2031\"},{\"id\":3,\"name\":\"true red\",\"year\":2002,\"color\":\"#BF1932\",\"pantone_value\":\"19-1664\"},{\"id\":4,\"name\":\"aqua sky\",\"year\":2003,\"color\":\"#7BC4C4\",\"pantone_value\":\"14-4811\"},{\"id\":5,\"name\":\"tigerlily\",\"year\":2004,\"color\":\"#E2583E\",\"pantone_value\":\"17-1456\"},{\"id\":6,\"name\":\"blue turquoise\",\"year\":2005,\"color\":\"#53B0AE\",\"pantone_value\":\"15-5217\"}],\"support\":{\"url\":\"https:\/\/reqres.in\/#support-heading\",\"text\":\"To keep ReqRes free, contributions towards server costs are appreciated!\"}}\n\n"},{"result":{"nanos":23600,"startTime":1713388391023,"endTime":1713388391023,"millis":0.0236,"status":"passed"},"step":{"line":11,"prefix":"Then","index":3,"text":"status 200"}}],"line":7,"description":"","durationMillis":519.0287,"failed":false,"tags":["teste"],"executorName":"main","name":"teste inicial","startTime":1713388390356,"refId":"[1:7]","endTime":1713388391023,"exampleIndex":-1}],"callDepth":0,"name":"","description":"","resultDate":"2024-04-17 06:13:11 PM","durationMillis":519.0287,"passedCount":1}